\relax 
\catcode `:\active 
\catcode `;\active 
\catcode `!\active 
\catcode `?\active 
\select@language{french}
\@writefile{toc}{\select@language{french}}
\@writefile{lof}{\select@language{french}}
\@writefile{lot}{\select@language{french}}
\@writefile{toc}{\contentsline {section}{\numberline {1}Introduction}{1}}
\@writefile{toc}{\contentsline {section}{\numberline {2}Questions}{2}}
\@writefile{toc}{\contentsline {subsection}{\numberline {2.1}Grammaire (3 points)}{2}}
\@writefile{toc}{\contentsline {subsection}{\numberline {2.2}Exemples (5 points)}{2}}
\@writefile{toc}{\contentsline {subsection}{\numberline {2.3}Strat\IeC {\'e}gie d'interpr\IeC {\'e}tation (6 points)}{3}}
\@writefile{toc}{\contentsline {subsection}{\numberline {2.4}Strat\IeC {\'e}gie de compilation (6 points)}{3}}
